11111111111111111111111111111111111111111111111111111111111
11100000000110000111110000000000000000000000000000000111111
11101111110000110111110111111111111111111111110111111111111
11101111111111110111110000000000000000011111110000000111111
11101111111111110111111111111111111011111111111111110111111
11100000000001100000000011111110000000000000000000110111111
11111111101111101111111011111111111111111111111110110000003
11110000001100001111111000000000000000000000111110111111111
11110111101101111111111111111111111111111110111110111111111
20000111101101111111100000000000000000001110111110111111111
11111111101101111111101111111111111111101110111110111111111
11100000001101111111101101111111111111101110111110111111111
11101111111101111111101100000000000011101110111110111111111
11101100011101111111101101111110111011101110001110111111111
11101101000001111111101101101110111011101111101110111111111
11101101111111111111101101101110111011100000001110111111111
11101111111000000001101141101110111011111111111110000111111
11100000000011101111101111101110111011111111111111110111111
11111111110111101111101111101110111011100000111111110111111
11000110000111101111100000001110111011101110111111110111111
11011110111111101111111111111110111011101110111111110111111
11000000111111100000000000000000111000001110000000000111111
11111111111111111111111111111111111111111111111111111111111
